…
``` r
hawai %>% pull(Date) %>% class()
```

    ## [1] "POSIXct" "POSIXt"

Voici le nouveau tableau avec des colonnes années et mois ajoutées:

``` r
hawai %>%
  mutate(Year = Date %>% year(),
         Month = Date %>% month())
```

    ## # A tibble: 526 x 5
    ##     time   CO2 Date                 Year Month
    ##    <dbl> <dbl> <dttm>              <dbl> <dbl>
    ##  1 1958.  316. 1958-03-02 20:00:01  1958     3
    ##  2 1958.  317. 1958-04-02 06:00:00  1958     4
    ##  3 1958.  317. 1958-05-02 16:00:00  1958     5
    ##  4 1958.  317. 1958-06-02 02:00:01  1958     6
    ##  5 1958.  316. 1958-07-02 12:00:00  1958     7
    ##  6 1959.  315. 1958-08-01 22:00:00  1958     8
    ##  7 1959.  314. 1958-09-01 08:00:01  1958     9
    ##  8 1959.  314. 1958-10-01 18:00:00  1958    10
    ##  9 1959.  313. 1958-11-01 04:00:00  1958    11
    ## 10 1959.  315. 1958-12-01 14:00:01  1958    12
    ## # … with 516 more rows
…
